waveform.vcd
$version Generated by Wokwi.com $end
$date Thu, 21 Sep 2023 11:28:55 GMT $end
$timescale 1ns $end
$scope module logic $end
$var wire 1 ! D0 $end
$var wire 1 " D1 $end
$var wire 1 # D2 $end
$var wire 1 $ D3 $end
$upscope $end
$enddefinitions $end
#0
0!
#0
0"
#0
0#
#0
0$
#15250
1!
#30437
0!
#39750
1$
#43750
0$
#47750
1$
#51750
0$
#55750
1$
#59750
0$
#63750
1$
#67750
0$
#71750
1$
#75750
0$
#79750
1$
#83750
0$
#87750
1"
#87750
1$
#91750
0$
#95750
1$
#99750
0$
#10110000
0"
#10110000
1$
#10114000
0$
#10118000
1"
#10118000
1$
#10122000
0$
#10126000
0"
#10126000
1$
#10130000
0$
#10134000
1$
#10138000
0$
#10142000
1$
#10146000
0$
#10150000
1"
#10150000
1$
#10154000
0$
#10158000
0"
#10158000
1$
#10162000
0$
#10166000
1$
#10170000
0$
#20179312
1!
#483364312
1!
